Applied Data Science
…
diamonds %>%
  group_by(cut)

# A tibble: 53,940 x 10
# Groups:   cut [5]
   carat cut       color clarity depth table price     x     y     z
   <dbl> <ord>     <ord> <ord>   <dbl> <dbl> <int> <dbl> <dbl> <dbl>
 1 0.23  Ideal     E     SI2      61.5    55   326  3.95  3.98  2.43
 2 0.21  Premium   E     SI1      59.8    61   326  3.89  3.84  2.31
 3 0.23  Good      E     VS1      56.9    65   327  4.05  4.07  2.31
 4 0.290 Premium   I     VS2      62.4    58   334  4.2   4.23  2.63
 5 0.31  Good      J     SI2      63.3    58   335  4.34  4.35  2.75
 6 0.24  Very Good J     VVS2     62.8    57   336  3.94  3.96  2.48
 7 0.24  Very Good I     VVS1     62.3    57   336  3.95  3.98  2.47
 8 0.26  Very Good H     SI1      61.9    55   337  4.07  4.11  2.53
 9 0.22  Fair      E     VS2      65.1    61   337  3.87  3.78  2.49
10 0.23  Very Good H     VS1      59.4    61   338  4     4.05  2.39
# ... with 53,930 more rows
…
diamonds %>%
  group_by(cut, clarity) %>%
  summarise(meanPrice = mean(price),
            maxPrice = max(price),
            meanWeight = mean(carat)) %>%
  mutate(meanPricePerCarat = meanPrice / meanWeight)

# A tibble: 40 x 6
# Groups:   cut [5]
   cut   clarity meanPrice maxPrice meanWeight meanPricePerCarat
   <ord> <ord>       <dbl>    <dbl>      <dbl>             <dbl>
 1 Fair  I1          3704.    18531      1.36              2721.
 2 Fair  SI2         5174.    18308      1.20              4298.
 3 Fair  SI1         4208.    18574      0.965             4363.
 4 Fair  VS2         4175.    18565      0.885             4716.
 5 Fair  VS1         4165.    17995      0.880             4734.
 6 Fair  VVS2        3350.    16364      0.692             4844.
 7 Fair  VVS1        3871.    12648      0.665             5824.
 8 Fair  IF          1912.     3205      0.474             4031.
 9 Good  I1          3597.    11548      1.20              2990.
10 Good  SI2         4580.    18788      1.04              4424.
# ... with 30 more rows
…
