…
```r
library(tidymodels)
# define the recipe (it looks a lot like applying the lm function)
model_recipe <- recipe(default ~ ., 
                       data = credit_train)

summary(model_recipe)
```

```
# A tibble: 24 x 4
   variable  type    role      source  
   <chr>     <chr>   <chr>     <chr>   
 1 LIMIT_BAL numeric predictor original
 2 SEX       nominal predictor original
 3 EDUCATION nominal predictor original
 4 MARRIAGE  nominal predictor original
 5 AGE       numeric predictor original
 6 PAY_0     numeric predictor original
 7 PAY_2     numeric predictor original
 8 PAY_3     numeric predictor original
 9 PAY_4     numeric predictor original
10 PAY_5     numeric predictor original
# ... with 14 more rows
```
…
```r
credit_train_preprocessed <- bake(prepped_recipe, credit_train)
credit_test_preprocessed <- bake(prepped_recipe, credit_test)

credit_train_preprocessed
```

```
# A tibble: 24,001 x 40
   LIMIT_BAL   AGE BILL_AMT1 BILL_AMT2 BILL_AMT3 BILL_AMT4 BILL_AMT5
       <dbl> <dbl>     <dbl>     <dbl>     <dbl>     <dbl>     <dbl>
 1     0.154  2.60    0.0532    0.0436   0.00993    0         0     
 2     0.384  4.01    0.638     0.679    0.710      0.440     0.476 
 3     0.384  6.17    0.117     0.0798   0.516      0.326     0.315 
 4     3.84   3.14    5.00      5.80     6.41       8.44      7.94  
 5     1.08   3.03    0.153     0.198    0.174      0.190     0.194 
 6     0.154  3.79    0         0        0          0         0.214 
 7     1.54   3.68    0.150     0.138    0.0798     0.0391    0.0300
 8     2.00   5.52    0.167     0.305    0.144      0.132     0.366 
 9     4.84   4.44    0.165     0.0915   0.0937     0.101     0.107 
10     0.538  3.25    0.894     0.948    0.947      1.04      0.594 
# ... with 23,991 more rows, and 33 more variables: BILL_AMT6 <dbl>,
#   PAY_AMT1 <dbl>, PAY_AMT2 <dbl>, PAY_AMT3 <dbl>, PAY_AMT4 <dbl>,
#   PAY_AMT5 <dbl>, PAY_AMT6 <dbl>, default <fct>, SEX_X2 <dbl>,
#   EDUCATION_X1 <dbl>, EDUCATION_X2 <dbl>, EDUCATION_X3 <dbl>,
#   MARRIAGE_X1 <dbl>, MARRIAGE_X2 <dbl>, PAY_0_X.2 <dbl>, PAY_0_X0 <dbl>,
#   PAY_0_X1 <dbl>, PAY_0_X2 <dbl>, PAY_2_X.2 <dbl>, PAY_2_X0 <dbl>,
#   PAY_2_X2 <dbl>, PAY_3_X.2 <dbl>, PAY_3_X0 <dbl>, PAY_3_X2 <dbl>,
#   PAY_4_X.2 <dbl>, PAY_4_X0 <dbl>, PAY_4_X2 <dbl>, PAY_5_X.2 <dbl>,
#   PAY_5_X0 <dbl>, PAY_5_X2 <dbl>, PAY_6_X.2 <dbl>, PAY_6_X0 <dbl>,
…
