…
A first minimal example: Getting all words from Jane Austen's novels
====





```r
original_books <- austen_books() 

original_books
```

```
# A tibble: 73,422 x 2
   text                  book               
 * <chr>                 <fct>              
 1 SENSE AND SENSIBILITY Sense & Sensibility
 2 ""                    Sense & Sensibility
 3 by Jane Austen        Sense & Sensibility
 4 ""                    Sense & Sensibility
 5 (1811)                Sense & Sensibility
 6 ""                    Sense & Sensibility
 7 ""                    Sense & Sensibility
 8 ""                    Sense & Sensibility
 9 ""                    Sense & Sensibility
10 CHAPTER 1             Sense & Sensibility
# ... with 73,412 more rows
```

***


```r
original_books %>%
  unnest_tokens(word, text) -> tidy_books

tidy_books
```

```
# A tibble: 725,055 x 2
   book                word       
   <fct>               <chr>      
 1 Sense & Sensibility sense      
 2 Sense & Sensibility and        
 3 Sense & Sensibility sensibility
 4 Sense & Sensibility by         
 5 Sense & Sensibility jane       
 6 Sense & Sensibility austen     
 7 Sense & Sensibility 1811       
 8 Sense & Sensibility chapter    
 9 Sense & Sensibility 1          
10 Sense & Sensibility the        
# ... with 725,045 more rows
```
…
A not so helpful word count
=====


```r
tidy_books %>%
        count(word, sort = TRUE)
```

```
# A tibble: 14,520 x 2
   word      n
   <chr> <int>
 1 the   26351
 2 to    24044
 3 and   22515
 4 of    21178
 5 a     13408
 6 her   13055
 7 i     12006
 8 in    11217
 9 was   11204
10 it    10234
# ... with 14,510 more rows
```
…
***



```r
tidy_books %>%
        count(word, sort = TRUE)
```

```
# A tibble: 13,914 x 2
   word       n
   <chr>  <int>
 1 miss    1855
 2 time    1337
 3 fanny    862
 4 dear     822
 5 lady     817
 6 sir      806
 7 day      797
 8 emma     787
 9 sister   727
10 house    699
# ... with 13,904 more rows
```
…
